ETL_01
…
## 
##  Column specification 
## cols(
##   .default = col_character(),
##   X1 = col_double(),
##   X13 = col_double(),
##   X23 = col_double()
## )
##  Use `spec()` for the full column specifications.

Peek

my_data

## # A tibble: 61 x 30
##       X1 Apellido    Nombre     `e-mail`        `TP#1: clases pal Recuperatorio
##    <dbl> <chr>       <chr>      <chr>           <chr>              <chr>        
##  1     1 Aguallo     Valeria S valesole84@hot <NA>               <NA>         
##  2     2 Aguilar     Manuel     manuelmla.agui Recupera           4 (cuatro)   
##  3     3 Aladrn     Luciana    lucianaaladren <NA>               <NA>         
##  4     4 Bermudez M Maria Hay maydeebermudez Recupera           4 (cuatro)   
##  5     5 Blanco      Julia      jublancolia@gm <NA>               <NA>         
##  6     6 Blanco Nar Janice     janice.narre@g 5 (cinco)          <NA>         
##  7     7 Bulacio     Ana Maria marbulacio1994 <NA>               <NA>         
##  8     8 Calero      Nahuel     nahuelcalero@g <NA>               <NA>         
##  9     9 Camillo     Gisela Ce gisecamillo@ho 7 (siete)          <NA>         
## 10    10 Contreras   Celeste    celestecembalo <NA>               <NA>         
## #  with 51 more rows, and 24 more variables: TP#2: variacin <chr>,
## #   TP#3: morfo y sintaxis <chr>, Prcticos <chr>, Promedio cursada <chr>,
## #   Examen final <chr>, Observaciones <chr>, X13 <dbl>, Apellido_1 <chr>,
## #   Nombre_1 <chr>, e-mail_1 <chr>, Grupo <chr>, TP: <chr>, TP:_1 <chr>,
## #   TP:_2 <chr>, TP:_3 <chr>, Comentarios <chr>, X23 <dbl>, Apellido_2 <chr>,
## #   Nombre_2 <chr>, e-mail_2 <chr>, Grupo_1 <chr>, Prcticos_1 <chr>,
## #   Clase de apoyo <chr>, Comentarios_1 <chr>
…
